%YAML 1.1
%TAG !u! tag:unity3d.com,2011:
--- !u!74 &7400000
AnimationClip:
  m_ObjectHideFlags: 0
  m_CorrespondingSourceObject: {fileID: 0}
  m_PrefabInstance: {fileID: 0}
  m_PrefabAsset: {fileID: 0}
  m_Name: Player idle
  serializedVersion: 6
  m_Legacy: 0
  m_Compressed: 0
  m_UseHighQualityCurve: 1
  m_RotationCurves: []
  m_CompressedRotationCurves: []
  m_EulerCurves: []
  m_PositionCurves: []
  m_ScaleCurves: []
  m_FloatCurves: []
  m_PPtrCurves:
  - curve:
    - time: 0
      value: {fileID: 21300000, guid: e5cfa9c48ee4d4b7694945b4c8f1c595, type: 3}
    - time: 0.15
      value: {fileID: 21300000, guid: 8ff60eb0c81f744dcacb2893aa847274, type: 3}
    - time: 0.31666666
      value: {fileID: 21300000, guid: f52e85f0ffd884c759f27cf25aedd5c1, type: 3}
    - time: 0.46666667
      value: {fileID: 21300000, guid: 16f584e6d7a2c47ce983d0f0961ee2a2, type: 3}
    - time: 0.6166667
      value: {fileID: 21300000, guid: a022d297f270949a6bfe0daf96be8491, type: 3}
    - time: 0.78333336
      value: {fileID: 21300000, guid: c53319a242c0144448bf7bfe49003aa7, type: 3}
    attribute: m_Sprite
    path: 
    classID: 212
    script: {fileID: 0}
  m_SampleRate: 60
  m_WrapMode: 0
  m_Bounds:
    m_Center: {x: 0, y: 0, z: 0}
    m_Extent: {x: 0, y: 0, z: 0}
  m_ClipBindingConstant:
    genericBindings:
    - serializedVersion: 2
      path: 0
      attribute: 0
      script: {fileID: 0}
      typeID: 212
      customType: 23
      isPPtrCurve: 1
    pptrCurveMapping:
    - {fileID: 21300000, guid: e5cfa9c48ee4d4b7694945b4c8f1c595, type: 3}
    - {fileID: 21300000, guid: 8ff60eb0c81f744dcacb2893aa847274, type: 3}
    - {fileID: 21300000, guid: f52e85f0ffd884c759f27cf25aedd5c1, type: 3}
    - {fileID: 21300000, guid: 16f584e6d7a2c47ce983d0f0961ee2a2, type: 3}
    - {fileID: 21300000, guid: a022d297f270949a6bfe0daf96be8491, type: 3}
    - {fileID: 21300000, guid: c53319a242c0144448bf7bfe49003aa7, type: 3}
  m_AnimationClipSettings:
    serializedVersion: 2
    m_AdditiveReferencePoseClip: {fileID: 0}
    m_AdditiveReferencePoseTime: 0
    m_StartTime: 0
    m_StopTime: 0.8
    m_OrientationOffsetY: 0
    m_Level: 0
    m_CycleOffset: 0
    m_HasAdditiveReferencePose: 0
    m_LoopTime: 1
    m_LoopBlend: 0
    m_LoopBlendOrientation: 0
    m_LoopBlendPositionY: 0
    m_LoopBlendPositionXZ: 0
    m_KeepOriginalOrientation: 0
    m_KeepOriginalPositionY: 1
    m_KeepOriginalPositionXZ: 0
    m_HeightFromFeet: 0
    m_Mirror: 0
  m_EditorCurves: []
  m_EulerEditorCurves: []
  m_HasGenericRootTransform: 0
  m_HasMotionFloatCurves: 0
  m_Events: []
